Models with multiple predictors
…
---

## Book weight and volume

The `allbacks` data frame gives measurements on the volume and weight of 15 books, some of which are softback and some of which are hardback.

```r
library(DAAG)
as_tibble(allbacks)
```

```
## # A tibble: 15 x 4
##    volume  area weight cover
##     <dbl> <dbl>  <dbl> <fct>
##  1    885   382    800 hb   
##  2   1016   468    950 hb   
##  3   1125   387   1050 hb   
##  4    239   371    350 hb   
##  5    701   371    750 hb   
##  6    641   367    600 hb   
##  7   1228   396   1075 hb   
##  8    412     0    250 pb   
##  9    953     0    700 pb   
## 10    929     0    650 pb   
## # … with 5 more rows
```
…
