Web scraping
…
## Create a data frame: `imdb_top_250`

```r
imdb_top_250 <- tibble(
  title = titles, 
  year = years, 
  score = scores
  )

imdb_top_250
```

```
## # A tibble: 250 x 3
##   title                     year score
##   <chr>                    <dbl> <dbl>
## 1 The Shawshank Redemption  1994   9.2
## 2 The Godfather             1972   9.1
## 3 The Godfather: Part II    1974   9  
## 4 The Dark Knight           2008   9  
## 5 12 Angry Men              1957   8.9
## 6 Schindler's List          1993   8.9
## # … with 244 more rows
```
…
- Add a variable for rank

```r
imdb_top_250 <- imdb_top_250 %>%
  mutate(rank = 1:nrow(imdb_top_250))
```

---

```
## # A tibble: 250 x 4
##    title                                         year score  rank
##    <chr>                                        <dbl> <dbl> <int>
##  1 The Shawshank Redemption                      1994   9.2     1
##  2 The Godfather                                 1972   9.1     2
##  3 The Godfather: Part II                        1974   9       3
##  4 The Dark Knight                               2008   9       4
##  5 12 Angry Men                                  1957   8.9     5
##  6 Schindler's List                              1993   8.9     6
##  7 The Lord of the Rings: The Return of the Ki…  2003   8.9     7
##  8 Pulp Fiction                                  1994   8.8     8
##  9 The Good, the Bad and the Ugly                1966   8.8     9
## 10 The Lord of the Rings: The Fellowship of th…  2001   8.8    10
## 11 Fight Club                                    1999   8.8    11
## 12 Forrest Gump                                  1994   8.8    12
## 13 Inception                                     2010   8.7    13
## 14 The Lord of the Rings: The Two Towers         2002   8.7    14
## 15 Star Wars: Episode V - The Empire Strikes B…  1980   8.7    15
## 16 The Matrix                                    1999   8.6    16
## 17 Goodfellas                                    1990   8.6    17
## 18 One Flew Over the Cuckoo's Nest               1975   8.6    18
## 19 Seven Samurai                                 1954   8.6    19
## 20 Seven                                         1995   8.6    20
## # … with 230 more rows
```
…
---

.question[
Which 1995 movies made the list?
]

--

```r
imdb_top_250 %>% 
  filter(year == 1995)
```

```
## # A tibble: 8 x 4
##   title               year score  rank
##   <chr>              <dbl> <dbl> <int>
## 1 Seven               1995   8.6    20
## 2 The Usual Suspects  1995   8.5    32
## 3 Braveheart          1995   8.3    78
## 4 Toy Story           1995   8.3    81
## 5 Heat                1995   8.2   124
## 6 Casino              1995   8.2   139
## # … with 2 more rows
```
---

.question[
Which years have the most movies on the list?
]

--

```r
imdb_top_250 %>% 
  count(year, sort = TRUE)
```

```
## # A tibble: 84 x 2
##    year     n
##   <dbl> <int>
## 1  1995     8
## 2  2019     7
## 3  1957     6
## 4  2000     6
## 5  2004     6
## 6  2009     6
## # … with 78 more rows
```
…
